<?xml version="1.0" encoding="utf-8"?>
<!-- Generator: Adobe Illustrator 18.0.0, SVG Export Plug-In . SVG Version: 6.00 Build 0)  -->
<!DOCTYPE svg PUBLIC "-//W3C//DTD SVG 1.1//EN" "http://www.w3.org/Graphics/SVG/1.1/DTD/svg11.dtd">
<svg version="1.1" id="Isolation_Mode" xmlns="http://www.w3.org/2000/svg" xmlns:xlink="http://www.w3.org/1999/xlink" x="0px"
	 y="0px" viewBox="0 0 179 87.3" enable-background="new 0 0 179 87.3" xml:space="preserve">
<g>
	<circle fill="#333333" cx="25.6" cy="72.9" r="4.4"/>
	<path fill="#333333" d="M25.6,58.4c-8,0-14.5,6.5-14.5,14.5s6.5,14.5,14.5,14.5S40,80.9,40,72.9S33.6,58.4,25.6,58.4z M25.6,80.8
		c-4.4,0-7.9-3.5-7.9-7.9s3.5-7.9,7.9-7.9s7.9,3.5,7.9,7.9S29.9,80.8,25.6,80.8z"/>
	<circle fill="#333333" cx="149" cy="72.9" r="4.4"/>
	<path fill="#333333" d="M149,58.4c-8,0-14.5,6.5-14.5,14.5S141,87.3,149,87.3c8,0,14.5-6.5,14.5-14.5S157,58.4,149,58.4z M149,80.8
		c-4.4,0-7.9-3.5-7.9-7.9s3.5-7.9,7.9-7.9c4.4,0,7.9,3.5,7.9,7.9S153.3,80.8,149,80.8z"/>
	<path fill="#333333" d="M176.9,38.7c0-11-11.7-32.8-12.5-34.1c-0.8-1.3-3.1-4.6-5.8-4.6H141h-4h-10h-26h-4H61H14.2H14v0
		C9,0.3,5.8,4,5.8,8.5L2.1,54L0,62.5V67c0,3.3,4.7,6,8,6h1.5c0-9,7.2-16.1,16.1-16.1c8.9,0,16.1,7.1,16.1,16.1h91.2
		c0-9,7.2-16.1,16.1-16.1c8.9,0,16.1,7.1,16.1,16.1h7.5c3.3,0,6.4-2.7,6.4-6.1V54.7C179,54.2,176.9,49.7,176.9,38.7z M97,7.1v21.8
		c0,2.3-1.8,4.1-4.1,4.1H65.1c-2.3,0-4.1-1.8-4.1-4.1V7.1C61,4.8,62.8,3,65.1,3h27.8C95.2,3,97,4.8,97,7.1z M101,28.9V7.1
		c0-2.3,1.8-4.1,4.1-4.1h27.8c2.3,0,4.1,1.8,4.1,4.1v21.8c0,2.3-1.8,4.1-4.1,4.1h-27.8C102.8,33,101,31.2,101,28.9z M141,28.9V7.1
		c0-2.3,1.8-4.1,4.1-4.1h12.1c2.1,0,3.9,2.3,4.5,3.4c0.5,0.9,6.9,13.2,9.3,21.9c0.6,2.4-1.1,4.7-3.6,4.7h-22.3
		C142.8,33,141,31.2,141,28.9z"/>
</g>
</svg>
