<?xml version="1.0" encoding="utf-8"?>
<!-- Generator: Adobe Illustrator 18.0.0, SVG Export Plug-In . SVG Version: 6.00 Build 0)  -->
<!DOCTYPE svg PUBLIC "-//W3C//DTD SVG 1.1//EN" "http://www.w3.org/Graphics/SVG/1.1/DTD/svg11.dtd">
<svg version="1.1" id="Layer_1" xmlns="http://www.w3.org/2000/svg" xmlns:xlink="http://www.w3.org/1999/xlink" x="0px" y="0px"
	 viewBox="0 0 155 84.5" enable-background="new 0 0 155 84.5" xml:space="preserve">
<g>
	<path fill="#333333" d="M100.5,44.4c2.4,0,4.8,0.4,7,1.1c-0.5-5.8-2.4-12.8-7.1-14.1L78,26.8V7.9c0-1.2-0.8-2.2-2-2.2
		c-1.2,0-2,1-2,2.2v18l-8-1.7L61.2,5.5c1-0.4,1.7-1.5,1.7-2.7c0-1.5-1.2-2.8-2.7-2.8H17c-1.5,0-2.7,1.5-2.7,3s1.2,3,2.7,3h0.8
		l-5.1,20c-0.6,0.3-1.3,0.6-1.9,0.9c-2.4,1.1-4,3.4-4.2,6.1l-0.3,3.8c5.4-4.1,11.9-6.5,19.1-6.4C43,30.7,56.1,47,53.8,64.5
		c-0.1,0.8-0.2,1.5-0.4,2.5H56h1.6h21.1c0,0,0-0.4,0-0.6C78.7,54.3,88.4,44.4,100.5,44.4z M37,26.4c0,1-0.9,1.7-1.9,1.4
		c-3.4-1-6.7-1.6-10.2-1.6c-2.2,0-4.4,0.2-6.5,0.6c-0.9,0.2-1.7-0.6-1.5-1.5l4.3-17.2C21.5,6.9,22.6,6,23.9,6h10.3
		C35.7,6,37,7.2,37,8.8V26.4z M54.7,45L54.7,45c-2.4-4.5-6.1-8.8-10.4-12.1c-2.8-2.2-4.4-5.6-4.4-9.1v-15C40,7.2,41.2,6,42.8,6h12.4
		c1.3,0,2.4,0.9,2.7,2.1l3.8,16.2c0.9,3.9,1.4,7.8,1.4,11.7v0.7C63,41.3,59.3,45,54.7,45z"/>
	<path fill="#333333" d="M24.9,34.7C11.2,34.7,0,45.8,0,59.6s11.2,24.9,24.9,24.9s24.9-11.2,24.9-24.9S38.7,34.7,24.9,34.7z
		 M24.9,75.8c-9,0-16.3-7.3-16.3-16.3S16,43.3,24.9,43.3c9,0,16.3,7.3,16.3,16.3S33.9,75.8,24.9,75.8z"/>
	<path fill="#333333" d="M100.5,48.1c-10.1,0-18.2,8.1-18.2,18.2s8.1,18.2,18.2,18.2s18.2-8.1,18.2-18.2S110.6,48.1,100.5,48.1z
		 M100.5,75.8c-5.3,0-9.5-4.3-9.5-9.5s4.3-9.5,9.5-9.5s9.5,4.3,9.5,9.5S105.8,75.8,100.5,75.8z"/>
	<circle fill="#333333" cx="24.9" cy="59.6" r="9.8"/>
</g>
<path fill="#333333" d="M126.7,59.1C123.2,40.6,124,36,124,36h-5v18.7c2,3.5,3.3,7.5,3.3,11.8c0,4.4-1.3,8.5-3.3,12V84h36
	C155,84,130.3,77.5,126.7,59.1z"/>
</svg>
