<svg class="Main-Sprite"
     xmlns="http://www.w3.org/2000/svg" version="1.1"
     xmlns:xlink="http://www.w3.org/1999/xlink">

    <symbol id="arrow" viewBox="0 0 22.6 13.4">
        <polygon points="2.1,13.4 11.3,4.2 20.5,13.4 22.6,11.3 13.3,2 11.3,0 9.4,1.9 0,11.3 "/>
    </symbol>
    <symbol id="logo" viewBox="0 0 162 170">
        <g>
            <polygon opacity="0.5" points="41.2,87.5 125.6,102.8 132.3,122.4 35.7,103.8 	"/>
            <polygon opacity="0.5" points="65.4,16 103.3,36.9 108.8,53.3 61.3,28.1 	"/>
            <polygon opacity="0.5" points="53.4,51.4 114.4,69.8 120,86.2 48.5,65.9 	"/>
            <g>
                <polygon points="136.5,135 125.5,102.6 29.2,122.7 25,135 		"/>
                <polygon points="103.3,36.9 54.9,47 48.5,65.9 108.8,53.3 		"/>
                <polygon points="114.4,69.8 42.1,84.8 35.7,103.8 120,86.2 		"/>
                <path
                        d="M97.7,20.5l-5-14.7C91.6,2.5,88.4,0,84.9,0h-8.1c-3.5,0-6.7,2.5-7.8,5.9l-7.6,22.3L97.7,20.5z"/>
                <path d="M159.1,145.7H2.5V142c0-4.4,3.6-8,8-8h140.7c4.4,0,8,3.6,8,8V145.7z"/>
            </g>
        </g>
        <g>
            <path d="M121.3,152c-11.7,7.6-25.6,12-40.5,12c-14.9,0-28.8-4.4-40.5-12H30.1c13.9,11.2,31.5,18,50.7,18
		s36.8-6.7,50.7-18H121.3z"/>
            <path d="M103.1,17.8c30.4,9.5,52.5,37.9,52.5,71.4c0,14.2-4,27.5-10.9,38.8h6.4c0.2,0,0.3,0,0.5,0
		c6.4-11.5,10-24.8,10-38.8c0-37.7-25.9-69.4-60.8-78.3L103.1,17.8z"/>
            <path d="M10.5,128h6.4C10,116.7,6,103.4,6,89.2c0-33.5,22.1-61.9,52.5-71.4l2.3-6.9C25.9,19.8,0,51.5,0,89.2
		c0,14.1,3.6,27.3,10,38.8C10.1,128,10.3,128,10.5,128z"/>
        </g>

    </symbol>
    <symbol id="doser" viewBox="0 0 171 107">
        <g>
            <circle fill="#333333" cx="107.8" cy="83.6" r="7.1"/>
            <circle fill="#333333" cx="81.2" cy="83.6" r="7.1"/>
            <circle fill="#333333" cx="54.7" cy="83.6" r="7.1"/>
            <circle fill="#333333" cx="28.2" cy="83.1" r="7.1"/>
            <path fill="#333333" d="M143.1,72.5c-3.5-18.4-0.6-30.5-0.6-30.5h-7.3v29.7c2,3.5,3.3,7.5,3.3,11.8c0,4.4-1.3,8.5-3.3,12v7.5h36
		C171.3,103,146.6,90.9,143.1,72.5z"/>
            <path fill="#333333" d="M126.3,65V40.1c0-2-1.1-4.1-3.1-4.1h-11.9v-8h1v-6h-8v6h1v8c-9,0-8.6,0-8.6,0H87c-2,0-3.7-1-3.7-2.9V3.9
		c0-2-1.4-3.9-3.4-3.9h-53c-2,0-3.6,1.9-3.6,3.9v34.7c0,0.6-0.2,1.3-0.5,1.8l-8.9,14.8c-0.3,0.5-0.6,1.2-0.6,1.8v5.3
		C5.3,66.1,0,74.2,0,83.5C0,96.4,10.7,107,23.6,107h88.8c12.9,0,23.2-10.6,23.2-23.5C135.6,76,132.3,69.3,126.3,65z M78.3,32.4
		c0,2-1.6,3.6-3.6,3.6H54.9c-2,0-3.6-1.6-3.6-3.6V7.6c0-2,1.6-3.6,3.6-3.6h19.8c2,0,3.6,1.6,3.6,3.6V32.4z M112.4,100H23.6
		c-9,0-16.4-7.5-16.4-16.5S14.6,67,23.6,67h88.8c9,0,16.4,7.5,16.4,16.5S121.4,100,112.4,100z"/>
        </g>
    </symbol>
    <symbol id="bus" viewBox="0 0 179 87">
        <g>
            <circle fill="#333333" cx="25.6" cy="72.9" r="4.4"/>
            <path fill="#333333" d="M25.6,58.4c-8,0-14.5,6.5-14.5,14.5s6.5,14.5,14.5,14.5S40,80.9,40,72.9S33.6,58.4,25.6,58.4z M25.6,80.8
		c-4.4,0-7.9-3.5-7.9-7.9s3.5-7.9,7.9-7.9s7.9,3.5,7.9,7.9S29.9,80.8,25.6,80.8z"/>
            <circle fill="#333333" cx="149" cy="72.9" r="4.4"/>
            <path fill="#333333" d="M149,58.4c-8,0-14.5,6.5-14.5,14.5S141,87.3,149,87.3c8,0,14.5-6.5,14.5-14.5S157,58.4,149,58.4z M149,80.8
		c-4.4,0-7.9-3.5-7.9-7.9s3.5-7.9,7.9-7.9c4.4,0,7.9,3.5,7.9,7.9S153.3,80.8,149,80.8z"/>
            <path fill="#333333" d="M176.9,38.7c0-11-11.7-32.8-12.5-34.1c-0.8-1.3-3.1-4.6-5.8-4.6H141h-4h-10h-26h-4H61H14.2H14v0
		C9,0.3,5.8,4,5.8,8.5L2.1,54L0,62.5V67c0,3.3,4.7,6,8,6h1.5c0-9,7.2-16.1,16.1-16.1c8.9,0,16.1,7.1,16.1,16.1h91.2
		c0-9,7.2-16.1,16.1-16.1c8.9,0,16.1,7.1,16.1,16.1h7.5c3.3,0,6.4-2.7,6.4-6.1V54.7C179,54.2,176.9,49.7,176.9,38.7z M97,7.1v21.8
		c0,2.3-1.8,4.1-4.1,4.1H65.1c-2.3,0-4.1-1.8-4.1-4.1V7.1C61,4.8,62.8,3,65.1,3h27.8C95.2,3,97,4.8,97,7.1z M101,28.9V7.1
		c0-2.3,1.8-4.1,4.1-4.1h27.8c2.3,0,4.1,1.8,4.1,4.1v21.8c0,2.3-1.8,4.1-4.1,4.1h-27.8C102.8,33,101,31.2,101,28.9z M141,28.9V7.1
		c0-2.3,1.8-4.1,4.1-4.1h12.1c2.1,0,3.9,2.3,4.5,3.4c0.5,0.9,6.9,13.2,9.3,21.9c0.6,2.4-1.1,4.7-3.6,4.7h-22.3
		C142.8,33,141,31.2,141,28.9z"/>
        </g>
    </symbol>
    <symbol id="loader" viewBox="0 0 155 85">
        <g>
            <path fill="#333333" d="M100.5,44.4c2.4,0,4.8,0.4,7,1.1c-0.5-5.8-2.4-12.8-7.1-14.1L78,26.8V7.9c0-1.2-0.8-2.2-2-2.2
		c-1.2,0-2,1-2,2.2v18l-8-1.7L61.2,5.5c1-0.4,1.7-1.5,1.7-2.7c0-1.5-1.2-2.8-2.7-2.8H17c-1.5,0-2.7,1.5-2.7,3s1.2,3,2.7,3h0.8
		l-5.1,20c-0.6,0.3-1.3,0.6-1.9,0.9c-2.4,1.1-4,3.4-4.2,6.1l-0.3,3.8c5.4-4.1,11.9-6.5,19.1-6.4C43,30.7,56.1,47,53.8,64.5
		c-0.1,0.8-0.2,1.5-0.4,2.5H56h1.6h21.1c0,0,0-0.4,0-0.6C78.7,54.3,88.4,44.4,100.5,44.4z M37,26.4c0,1-0.9,1.7-1.9,1.4
		c-3.4-1-6.7-1.6-10.2-1.6c-2.2,0-4.4,0.2-6.5,0.6c-0.9,0.2-1.7-0.6-1.5-1.5l4.3-17.2C21.5,6.9,22.6,6,23.9,6h10.3
		C35.7,6,37,7.2,37,8.8V26.4z M54.7,45L54.7,45c-2.4-4.5-6.1-8.8-10.4-12.1c-2.8-2.2-4.4-5.6-4.4-9.1v-15C40,7.2,41.2,6,42.8,6h12.4
		c1.3,0,2.4,0.9,2.7,2.1l3.8,16.2c0.9,3.9,1.4,7.8,1.4,11.7v0.7C63,41.3,59.3,45,54.7,45z"/>
            <path fill="#333333" d="M24.9,34.7C11.2,34.7,0,45.8,0,59.6s11.2,24.9,24.9,24.9s24.9-11.2,24.9-24.9S38.7,34.7,24.9,34.7z
		 M24.9,75.8c-9,0-16.3-7.3-16.3-16.3S16,43.3,24.9,43.3c9,0,16.3,7.3,16.3,16.3S33.9,75.8,24.9,75.8z"/>
            <path fill="#333333" d="M100.5,48.1c-10.1,0-18.2,8.1-18.2,18.2s8.1,18.2,18.2,18.2s18.2-8.1,18.2-18.2S110.6,48.1,100.5,48.1z
		 M100.5,75.8c-5.3,0-9.5-4.3-9.5-9.5s4.3-9.5,9.5-9.5s9.5,4.3,9.5,9.5S105.8,75.8,100.5,75.8z"/>
            <circle fill="#333333" cx="24.9" cy="59.6" r="9.8"/>
        </g>
        <path fill="#333333" d="M126.7,59.1C123.2,40.6,124,36,124,36h-5v18.7c2,3.5,3.3,7.5,3.3,11.8c0,4.4-1.3,8.5-3.3,12V84h36
	C155,84,130.3,77.5,126.7,59.1z"/>

    </symbol>
    <symbol id="rootine" viewBox="0 0 780 272">
        <g id="Monochrome_Dark_Logo">
            <path d="M775.2,100.2c0,3.3-1,5.5-2.7,6.9c-1.7,1.4-3.8,1.9-5.9,1.9h-76c0,7,0.6,12.4,1.9,17.5c1.3,5.1,3.4,9.6,6.4,13.3
		c3,3.7,6.9,6.5,11.7,8.5c4.8,2,10.7,3,17.7,3c5.5,0,10.4-0.4,14.7-1.3c4.3-0.9,8-1.9,11.1-3c3.1-1.1,5.7-2.1,7.7-3
		c2-0.9,3.5-1.3,4.6-1.3c0.6,0,1.1,0.2,1.6,0.4c0.5,0.3,0.8,0.7,1.1,1.3c0.3,0.6,0.5,1.4,0.6,2.5c0.1,1.1,0.2,2.4,0.2,3.9
		c0,1.1,0,2.1-0.1,2.9c-0.1,0.8-0.2,1.5-0.3,2.2s-0.3,1.2-0.6,1.7c-0.3,0.5-0.7,1-1.2,1.5c-0.5,0.5-1.9,1.2-4.2,2.3
		c-2.3,1.1-5.3,2.1-9,3.1c-3.7,1-7.9,1.9-12.8,2.8c-4.8,0.8-10,1.2-15.5,1.2c-9.5,0-17.8-1.3-24.9-4c-7.1-2.6-13.1-6.6-18-11.8
		c-4.9-5.2-8.6-11.8-11-19.6c-2.5-7.9-3.7-17-3.7-27.4c0-9.9,1.3-18.8,3.8-26.7c2.6-7.9,6.3-14.6,11.1-20.1
		c4.8-5.5,10.7-9.7,17.5-12.7c6.8-3,14.5-4.4,23-4.4c9.1,0,16.8,1.5,23.1,4.4c6.4,2.9,11.6,6.8,15.7,11.7c4.1,4.9,7.3,10.7,9.2,17.3
		c1.9,6.6,3.1,13.7,3.1,21.2V100.2z M753.5,94c0.3-11-2.2-19.9-7.4-26.2c-5.2-6.3-12.9-9.5-23.2-9.5c-5.2,0-9.9,1-13.8,2.9
		c-4,2-7.3,4.6-9.9,7.8c-2.7,3.3-4.7,7.1-6.2,11.4c-1.5,4.3-2.3,8.6-2.5,13.6H753.5z"/>
            <path d="M646.2,162.9c0,0.7-0.4,1.3-0.8,1.7c-0.3,0.5-1,0.9-1.8,1.2s-1.9,0.6-3.3,0.8c-1.4,0.2-3.1,0.3-5.2,0.3
		c-2.1,0-3.9-0.1-5.3-0.3c-1.4-0.2-2.4-0.4-3.2-0.8s-1.5-0.7-1.8-1.2c-0.3-0.5-0.7-1-0.7-1.7V95.3c0-6.6-0.3-11.9-1.4-15.9
		c-1-4-2.4-7.5-4.4-10.4c-2-2.9-4.5-5.1-7.6-6.7c-3.1-1.5-6.7-2.3-10.8-2.3c-5.3,0-10.7,1.9-16,5.6c-5.3,3.8-10.8,9.3-16.8,16.5
		v80.7c0,0.7,0,1.3-0.4,1.7c-0.3,0.5-0.8,0.9-1.6,1.2s-1.8,0.6-3.2,0.8c-1.4,0.2-3.1,0.3-5.2,0.3c-2.1,0-3.8-0.1-5.1-0.3
		c-1.4-0.2-2.5-0.4-3.3-0.8c-0.8-0.3-1.4-0.7-1.7-1.2c-0.3-0.5-0.5-1-0.5-1.7V47.5c0-0.7,0.2-1.3,0.4-1.7c0.3-0.5,0.8-0.9,1.6-1.3
		s1.8-0.6,3-0.8c1.2-0.1,2.8-0.2,4.8-0.2c1.9,0,3.4,0.1,4.7,0.2c1.2,0.1,2.2,0.4,2.9,0.8c0.7,0.4,1.1,0.8,1.4,1.3
		c0.3,0.5,0.3,1,0.3,1.7v15.3c7-7.3,13.1-12.6,19.5-16c6.5-3.4,13-5.1,19.6-5.1c7.7,0,14.2,1.3,19.5,3.9c5.3,2.6,9.5,6.1,12.8,10.5
		c3.2,4.4,5.8,9.5,7.2,15.3c1.4,5.9,2.4,12.9,2.4,21.1V162.9z"/>
            <path d="M507.4,44c2.6,0,4.4,0.6,5.3,1.8c0.9,1.2,1.5,2.9,1.5,5.1v112c0,0.7-0.2,1.3-0.6,1.7c-0.3,0.5-1,0.9-1.8,1.2
		c-0.8,0.3-1.9,0.6-3.3,0.8c-1.4,0.2-3,0.3-5,0.3c-2.1,0-3.9-0.1-5.3-0.3c-1.4-0.2-2.5-0.4-3.3-0.8c-0.8-0.3-1.2-0.7-1.5-1.2
		c-0.3-0.5-0.3-1-0.3-1.7V62h-60v64.1c0,8,1.1,14,3.5,18c2.4,4.1,6.5,6.1,12.6,6.1c2,0,3.7-0.2,5.2-0.6s2.9-0.8,4.1-1.2
		c1.2-0.4,2.2-0.8,3.1-1.2c0.9-0.4,1.6-0.6,2.3-0.6c0.4,0,0.8,0.1,1.2,0.3c0.4,0.2,0.7,0.6,0.9,1.2c0.2,0.6,0.4,1.4,0.6,2.4
		c0.2,1,0.3,2.3,0.3,3.8c0,2.5-0.2,4.4-0.5,5.8c-0.3,1.4-0.9,2.5-1.5,3.2c-0.7,0.7-1.7,1.4-3.1,2c-1.4,0.6-2.9,1.1-4.7,1.5
		c-1.8,0.4-3.6,0.7-5.6,1c-2,0.3-3.9,0.4-5.9,0.4c-6,0-11.1-0.8-15.4-2.4c-4.3-1.6-7.8-4-10.5-7.2c-2.7-3.2-4.6-7.3-5.9-12.2
		c-1.2-4.9-1.7-10.7-1.7-17.4V62h-16.4c-1.3,0-2.3-0.8-3.1-2.2c-0.8-1.4-1.2-3.7-1.2-6.7c0-1.6,0.1-3,0.3-4.1c0.2-1.1,0.5-2,0.8-2.8
		c0.3-0.7,0.8-1.3,1.3-1.6c0.6-0.3,1.2-0.5,1.9-0.5h16.3V16.7c0-0.6,0-1.2,0.3-1.7c0.3-0.5,0.8-1,1.6-1.3c0.8-0.4,1.9-0.7,3.2-0.8
		c1.4-0.2,3.1-0.3,5.1-0.3c2.1,0,3.9,0.1,5.3,0.3c1.4,0.2,2.4,0.4,3.2,0.8s1.4,0.8,1.7,1.3c0.3,0.5,0.5,1.1,0.5,1.7V44H507.4z
		 M516.5,12.6c0,5-0.9,8.3-2.8,10.1c-1.9,1.8-5.3,2.7-10.4,2.7c-5,0-8.4-0.9-10.2-2.6c-1.8-1.8-2.8-5.1-2.8-9.9
		c0-5,0.9-8.3,2.8-10.1C495,0.9,498.5,0,503.5,0c5,0,8.4,0.9,10.2,2.6C515.6,4.4,516.5,7.7,516.5,12.6z"/>
            <path id="Sign_Monochrome_1_" d="M368.4,62.4c-11.5-11.5-26.8-17.8-43.1-17.8c-16.3,0-31.7,6.4-43.3,18l-15.3,15.3
		c-1.8,1.8-1.8,4.8,0,6.7l7.8,7.8c1.8,1.8,4.8,1.8,6.7,0L296.4,77c7.7-7.7,18-12,28.9-12c10.8,0,21,4.2,28.6,11.9
		c7.7,7.7,11.9,17.7,11.9,29c0,11.2-4.2,21.3-11.9,29c-7.7,7.7-17.8,11.9-28.6,11.9c-10.9,0-21.2-4.3-28.9-12l-28.8-28.8l-43.3-43.3
		c-11.6-11.6-27-18-43.3-18c-16.3,0-31.6,6.3-43.1,17.9c-11.5,11.5-17.8,27.1-17.8,43.4c0,8.2,1.5,16.1,4.6,23.5
		c3,7.4,7.5,14.2,13.3,19.9c5.8,5.8,12.5,10.2,19.7,13.3c7.3,3,15.2,4.6,23.3,4.6c8.2,0,16.1-1.6,23.4-4.6c7.2-3,13.5-7.4,19.2-13.1
		l14.4,14.9v-43.9V120h0h-42.9l14.5,14.7c-3.8,3.8-8.3,6.8-13.1,8.8c-4.9,2-10.2,3.1-15.6,3.1c-5.4,0-10.7-1-15.5-3.1
		c-4.9-2-9.3-5-13.1-8.8c-3.8-3.8-6.8-8.3-8.8-13.2c-2-4.9-3.1-10.2-3.1-15.8c0-10.9,4.2-21.3,11.9-29C160,69.2,170.2,65,181,65
		c10.9,0,21.2,4.3,28.9,12l28.8,28.8l43.3,43.3c11.6,11.6,27,18,43.3,18c16.3,0,31.6-6.4,43.1-17.9c11.6-11.6,17.9-27.1,17.9-43.4
		C386.3,89.5,380,74,368.4,62.4z"/>
            <g>
                <path d="M111.1,162.8c0,0.7-0.1,1.3-0.4,1.8s-0.8,0.9-1.7,1.3c-0.9,0.3-2.1,0.6-3.6,0.8c-1.5,0.2-3.6,0.3-6.2,0.3
			c-2.2,0-4-0.1-5.5-0.3c-1.4-0.2-2.5-0.4-3.4-0.8c-0.9-0.4-1.5-0.9-2-1.6c-0.5-0.7-0.9-1.5-1.2-2.6L72,122.5
			c-1.8-4.4-3.7-8.5-5.6-12.2c-1.9-3.7-4.2-6.9-6.9-9.6c-2.7-2.7-5.8-4.8-9.4-6.3c-3.6-1.5-7.9-2.3-13-2.3h-15v70.8
			c0,0.7-0.1,1.3-0.4,1.8s-0.9,0.9-1.7,1.2c-0.8,0.3-1.9,0.6-3.3,0.8c-1.4,0.2-3.2,0.3-5.3,0.3c-2.1,0-3.9-0.1-5.3-0.3
			c-1.4-0.2-2.5-0.5-3.4-0.8c-0.9-0.3-1.6-0.7-1.9-1.2c-0.3-0.5-0.6-1.1-0.6-1.8V9.1c0-3.3,1-5.7,2.7-7.1C4.7,0.7,6.6,0,8.6,0h35.3
			c4.2,0,7.7,0.2,10.5,0.4c2.8,0.2,5.3,0.5,7.5,0.7c6.4,1.1,12.1,2.9,17,5.3c4.9,2.4,9,5.4,12.4,9.1c3.3,3.7,5.8,7.9,7.5,12.6
			c1.7,4.7,2.5,10,2.5,15.7c0,5.6-0.7,10.5-2.2,14.9c-1.5,4.4-3.7,8.3-6.5,11.7c-2.8,3.4-6.2,6.3-10.1,8.8
			c-3.9,2.5-8.3,4.6-13.2,6.3c2.7,1.2,5.2,2.7,7.4,4.6c2.2,1.8,4.3,4,6.2,6.6c1.9,2.6,3.7,5.5,5.5,8.8c1.7,3.3,3.4,7.1,5.1,11.3
			l14.9,36.6c1.2,3.1,2,5.2,2.3,6.5C110.9,161.1,111.1,162.1,111.1,162.8z M77.9,46.2c0-6.5-1.5-12-4.4-16.5
			c-2.9-4.5-7.8-7.7-14.6-9.7c-2.1-0.6-4.6-1.2-7.2-1.5S45.4,18,41,18H22.2v56H44c5.8,0,10.8-0.6,15.1-2s7.8-3.3,10.6-5.8
			c2.8-2.5,4.9-5.5,6.2-8.9C77.2,53.9,77.9,50.2,77.9,46.2z"/>
            </g>
        </g>
        <g>
            <path d="M45.2,225c0,8.1-1.9,14.7-5.6,19.7c-3.7,5-8.8,7.5-15.1,7.5c-6.5,0-11.6-2.1-15.3-6.2v25.8H0v-74.1h8.4l0.4,5.9
		c3.7-4.6,8.9-6.9,15.5-6.9c6.4,0,11.5,2.4,15.3,7.3c3.7,4.8,5.6,11.6,5.6,20.2V225z M36.1,224c0-6-1.3-10.8-3.9-14.3
		c-2.6-3.5-6.1-5.2-10.6-5.2c-5.5,0-9.7,2.5-12.5,7.4v25.6c2.7,4.9,6.9,7.3,12.6,7.3c4.4,0,7.9-1.7,10.5-5.2S36.1,230.8,36.1,224z"
                    />
            <path d="M82.7,205.9c-1.4-0.2-2.9-0.3-4.5-0.3c-6,0-10.1,2.6-12.2,7.7v38h-9.2v-53.5h8.9l0.1,6.2c3-4.8,7.3-7.2,12.8-7.2
		c1.8,0,3.1,0.2,4.1,0.7V205.9z"/>
            <path d="M87.7,223.9c0-5.2,1-10,3.1-14.1c2.1-4.2,4.9-7.4,8.6-9.7c3.7-2.3,7.9-3.4,12.6-3.4c7.3,0,13.2,2.5,17.7,7.6
		s6.8,11.8,6.8,20.1v0.6c0,5.2-1,9.9-3,14c-2,4.1-4.8,7.4-8.6,9.7c-3.7,2.3-8,3.5-12.8,3.5c-7.3,0-13.1-2.5-17.6-7.6
		c-4.5-5-6.8-11.7-6.8-20V223.9z M96.9,225c0,5.9,1.4,10.7,4.1,14.3s6.4,5.4,11.1,5.4c4.7,0,8.3-1.8,11.1-5.5
		c2.7-3.6,4.1-8.7,4.1-15.3c0-5.9-1.4-10.6-4.2-14.3c-2.8-3.6-6.5-5.5-11.1-5.5c-4.5,0-8.2,1.8-10.9,5.4
		C98.3,213.2,96.9,218.3,96.9,225z"/>
            <path d="M145.7,224c0-8.2,1.9-14.8,5.8-19.8c3.9-5,9-7.5,15.3-7.5c6.3,0,11.2,2.1,14.9,6.4v-27.9h9.2v76h-8.4l-0.4-5.7
		c-3.7,4.5-8.8,6.7-15.3,6.7c-6.2,0-11.3-2.5-15.2-7.6c-3.9-5.1-5.9-11.7-5.9-19.9V224z M154.8,225c0,6.1,1.3,10.8,3.8,14.2
		c2.5,3.4,6,5.1,10.4,5.1c5.8,0,10-2.6,12.7-7.8V212c-2.7-5-6.9-7.6-12.6-7.6c-4.5,0-8,1.7-10.5,5.2
		C156.1,213.1,154.8,218.2,154.8,225z"/>
            <path d="M238.1,245.9c-3.6,4.2-8.8,6.3-15.7,6.3c-5.7,0-10.1-1.7-13-5c-3-3.3-4.5-8.2-4.5-14.7v-34.8h9.2v34.6
		c0,8.1,3.3,12.2,9.9,12.2c7,0,11.6-2.6,14-7.8v-38.9h9.2v53.5h-8.7L238.1,245.9z"/>
            <path d="M282.4,244.7c3.3,0,6.1-1,8.6-3c2.4-2,3.8-4.5,4.1-7.4h8.7c-0.2,3.1-1.2,6-3.2,8.8c-1.9,2.8-4.5,5-7.8,6.6
		c-3.2,1.6-6.7,2.5-10.3,2.5c-7.3,0-13.1-2.4-17.4-7.3c-4.3-4.9-6.5-11.5-6.5-20v-1.5c0-5.2,1-9.8,2.9-13.9s4.7-7.2,8.2-9.4
		c3.6-2.2,7.8-3.4,12.7-3.4c6,0,11,1.8,15,5.4c4,3.6,6.1,8.3,6.4,14H295c-0.3-3.5-1.6-6.3-3.9-8.5c-2.4-2.2-5.3-3.3-8.7-3.3
		c-4.7,0-8.3,1.7-10.8,5s-3.8,8.2-3.8,14.5v1.7c0,6.2,1.3,10.9,3.8,14.2C274,243,277.7,244.7,282.4,244.7z"/>
            <path d="M326.3,184.7v13h10v7.1h-10V238c0,2.1,0.4,3.8,1.3,4.8c0.9,1.1,2.4,1.6,4.6,1.6c1.1,0,2.5-0.2,4.4-0.6v7.4
		c-2.4,0.7-4.7,1-7,1c-4.1,0-7.2-1.2-9.3-3.7c-2.1-2.5-3.1-6-3.1-10.5v-33.2h-9.7v-7.1h9.7v-13H326.3z"/>
            <path d="M347.1,183.5c0-1.5,0.5-2.7,1.4-3.8c0.9-1,2.3-1.5,4-1.5s3.1,0.5,4.1,1.5c0.9,1,1.4,2.3,1.4,3.8c0,1.5-0.5,2.7-1.4,3.7
		c-0.9,1-2.3,1.5-4.1,1.5s-3.1-0.5-4-1.5C347.5,186.2,347.1,184.9,347.1,183.5z M357,251.2h-9.2v-53.5h9.2V251.2z"/>
            <path d="M369.2,223.9c0-5.2,1-10,3.1-14.1c2.1-4.2,4.9-7.4,8.6-9.7c3.7-2.3,7.9-3.4,12.6-3.4c7.3,0,13.2,2.5,17.7,7.6
		s6.8,11.8,6.8,20.1v0.6c0,5.2-1,9.9-3,14c-2,4.1-4.8,7.4-8.6,9.7c-3.7,2.3-8,3.5-12.8,3.5c-7.3,0-13.1-2.5-17.6-7.6
		c-4.5-5-6.8-11.7-6.8-20V223.9z M378.4,225c0,5.9,1.4,10.7,4.1,14.3s6.4,5.4,11.1,5.4c4.7,0,8.3-1.8,11.1-5.5
		c2.7-3.6,4.1-8.7,4.1-15.3c0-5.9-1.4-10.6-4.2-14.3c-2.8-3.6-6.5-5.5-11.1-5.5c-4.5,0-8.2,1.8-10.9,5.4
		C379.8,213.2,378.4,218.3,378.4,225z"/>
            <path d="M438,197.7l0.3,6.7c4.1-5.1,9.4-7.7,16-7.7c11.3,0,17,6.4,17.1,19.1v35.4h-9.2v-35.4c0-3.9-0.9-6.7-2.6-8.6
		c-1.7-1.8-4.4-2.8-8.1-2.8c-3,0-5.6,0.8-7.8,2.4c-2.2,1.6-4,3.7-5.2,6.2v38.1h-9.2v-53.5H438z"/>
            <path d="M541.5,237c0-2.5-0.9-4.4-2.8-5.8c-1.9-1.4-5.1-2.5-9.7-3.5c-4.6-1-8.3-2.2-11-3.6c-2.7-1.4-4.7-3-6-4.9
		c-1.3-1.9-2-4.2-2-6.8c0-4.4,1.9-8.1,5.6-11.1c3.7-3,8.5-4.6,14.2-4.6c6.1,0,11,1.6,14.8,4.7c3.8,3.1,5.7,7.1,5.7,12H541
		c0-2.5-1.1-4.7-3.2-6.5c-2.1-1.8-4.8-2.7-8-2.7c-3.3,0-5.9,0.7-7.8,2.2s-2.8,3.3-2.8,5.7c0,2.2,0.9,3.9,2.6,5
		c1.7,1.1,4.9,2.2,9.5,3.2c4.6,1,8.3,2.2,11.1,3.7s4.9,3.1,6.3,5.1c1.4,2,2.1,4.4,2.1,7.3c0,4.8-1.9,8.6-5.7,11.5
		c-3.8,2.9-8.8,4.3-14.9,4.3c-4.3,0-8.1-0.8-11.4-2.3s-5.9-3.6-7.7-6.4s-2.8-5.7-2.8-8.8h9.2c0.2,3.1,1.4,5.5,3.7,7.3
		c2.3,1.8,5.3,2.7,9.1,2.7c3.5,0,6.2-0.7,8.3-2.1C540.5,241.2,541.5,239.3,541.5,237z"/>
            <path d="M575,184.7v13h10v7.1h-10V238c0,2.1,0.4,3.8,1.3,4.8c0.9,1.1,2.4,1.6,4.6,1.6c1.1,0,2.5-0.2,4.4-0.6v7.4
		c-2.4,0.7-4.7,1-7,1c-4.1,0-7.2-1.2-9.3-3.7c-2.1-2.5-3.1-6-3.1-10.5v-33.2h-9.7v-7.1h9.7v-13H575z"/>
            <path d="M628.7,245.9c-3.6,4.2-8.8,6.3-15.7,6.3c-5.7,0-10.1-1.7-13-5c-3-3.3-4.5-8.2-4.5-14.7v-34.8h9.2v34.6
		c0,8.1,3.3,12.2,9.9,12.2c7,0,11.6-2.6,14-7.8v-38.9h9.2v53.5h-8.7L628.7,245.9z"/>
            <path d="M649.3,224c0-8.2,1.9-14.8,5.8-19.8c3.9-5,9-7.5,15.3-7.5c6.3,0,11.2,2.1,14.9,6.4v-27.9h9.2v76h-8.4l-0.4-5.7
		c-3.7,4.5-8.8,6.7-15.3,6.7c-6.2,0-11.3-2.5-15.2-7.6c-3.9-5.1-5.9-11.7-5.9-19.9V224z M658.5,225c0,6.1,1.3,10.8,3.8,14.2
		c2.5,3.4,6,5.1,10.4,5.1c5.8,0,10-2.6,12.7-7.8V212c-2.7-5-6.9-7.6-12.6-7.6c-4.5,0-8,1.7-10.5,5.2
		C659.7,213.1,658.5,218.2,658.5,225z"/>
            <path d="M708.7,183.5c0-1.5,0.5-2.7,1.4-3.8c0.9-1,2.3-1.5,4-1.5s3.1,0.5,4.1,1.5c0.9,1,1.4,2.3,1.4,3.8c0,1.5-0.5,2.7-1.4,3.7
		c-0.9,1-2.3,1.5-4.1,1.5s-3.1-0.5-4-1.5C709.2,186.2,708.7,184.9,708.7,183.5z M718.6,251.2h-9.2v-53.5h9.2V251.2z"/>
            <path d="M730.8,223.9c0-5.2,1-10,3.1-14.1c2.1-4.2,4.9-7.4,8.6-9.7c3.7-2.3,7.9-3.4,12.6-3.4c7.3,0,13.2,2.5,17.7,7.6
		s6.8,11.8,6.8,20.1v0.6c0,5.2-1,9.9-3,14c-2,4.1-4.8,7.4-8.6,9.7c-3.7,2.3-8,3.5-12.8,3.5c-7.3,0-13.1-2.5-17.6-7.6
		c-4.5-5-6.8-11.7-6.8-20V223.9z M740,225c0,5.9,1.4,10.7,4.1,14.3s6.4,5.4,11.1,5.4c4.7,0,8.3-1.8,11.1-5.5
		c2.7-3.6,4.1-8.7,4.1-15.3c0-5.9-1.4-10.6-4.2-14.3c-2.8-3.6-6.5-5.5-11.1-5.5c-4.5,0-8.2,1.8-10.9,5.4
		C741.4,213.2,740,218.3,740,225z"/>
        </g>

    </symbol>
    <symbol id="phone" viewBox="0 0 485 485">
        <path d="M242.607,0C108.629,0,0.001,108.628,0.001,242.606c0,133.976,108.628,242.606,242.606,242.606
		c133.978,0,242.604-108.631,242.604-242.606C485.212,108.628,376.585,0,242.607,0z M370.719,353.989l-19.425,19.429
		c-3.468,3.463-13.623,5.624-13.949,5.624c-61.452,0.536-120.621-23.602-164.095-67.08c-43.593-43.618-67.759-102.998-67.11-164.657
		c0-0.028,2.224-9.892,5.689-13.324l19.424-19.427c7.108-7.141,20.762-10.368,30.327-7.168l4.086,1.363
		c9.537,3.197,19.55,13.742,22.185,23.457l9.771,35.862c2.635,9.743-0.919,23.604-8.025,30.712l-12.97,12.972
		c12.734,47.142,49.723,84.138,96.873,96.903l12.965-12.975c7.141-7.141,20.997-10.692,30.719-8.061l35.857,9.806
		c9.717,2.67,20.26,12.62,23.456,22.154l1.363,4.145C381.028,333.262,377.826,346.913,370.719,353.989z"/>
    </symbol>
    <symbol id="steamroller" viewBox="0 0 186.2 106.8">
        <path fill="#333333" d="M185.9,103.9l-7.9-8.4V67.6c0-1.1-0.9-1.9-2-1.9s-2,0.9-2,1.9V88h-25v-7.6c0-1.2-0.8-2.4-2.1-2.4h-6.8
	c-0.6,0-1.2-0.2-1.6-0.6l-2.4-2.3c-0.8-0.8-0.9-2.2-0.1-3c2.5-2.9,8-6.3,10.8-8.5c2.9-2.3,4.3-3.2,4.3-4.3c0-0.1-0.1-0.1-0.1-0.2
	V38.6c0-0.1,0.1-0.2,0.1-0.4c-0.2-1-1.2-5.6-5.9-5.6c-5.3,0-5.2-3.5-5.2-3.5s0-15.5,0-20c0-2.7,1.8-3.6,3.2-3.9
	c1-0.2,1.8-1.1,1.8-2.2V2.5c0-1.2-0.8-2.5-2.1-2.5H93.7C78.4,0,79,11.2,79,11.2v20.7c0,0.8-0.4,1.6-1.1,2l-13.7,7.7
	c-0.7,0.4-1.2,1.2-1.2,2v7.4c0,1.2-0.8,2.1-2.1,2.1h-3.5c-0.2,0-0.4,0.1-0.5,0.1L1.8,66.7C0.8,67,0,67.9,0,68.9v21.2
	c0,1,0.8,1.9,1.8,2.2l20.6,5.4c0,5.1,4.2,9.1,9.3,9.1c3.5,0,6.5-1.8,8.1-4.8h10.8c1.6,3,4.6,4.8,8.1,4.8s6.5-1.8,8.1-4.8h26
	c3.3,3,7.4,4.1,11.9,4.1c7.4,0,13.9-4,17.2-10.1l0.5-0.1l0.7-0.1l4.7,9.6c0.2,0.4,0.7,0.6,1.2,0.6h56.1
	C186.2,106,186.6,104.8,185.9,103.9z M31.7,103.4c-3.2,0-5.8-2.6-5.8-5.8c0-3.2,2.6-5.8,5.8-5.8s5.8,2.6,5.8,5.8
	C37.4,100.8,34.8,103.4,31.7,103.4z M58.7,103.4c-3.2,0-5.8-2.6-5.8-5.8c0-3.2,2.6-5.8,5.8-5.8s5.8,2.6,5.8,5.8
	C64.4,100.8,61.8,103.4,58.7,103.4z M85.2,60h-17c-0.6,0-1-0.4-1-1s0.4-1,1-1h17c0.6,0,1,0.4,1,1S85.7,60,85.2,60z M85.2,54h-17
	c-0.6,0-1-0.4-1-1s0.4-1,1-1h17c0.6,0,1,0.4,1,1S85.7,54,85.2,54z M85.2,48h-17c-0.6,0-1-0.4-1-1s0.4-1,1-1h17c0.6,0,1,0.4,1,1
	S85.7,48,85.2,48z M104.7,99.2c-7,0-12.8-5.7-12.8-12.8s5.7-12.8,12.8-12.8s12.8,5.7,12.8,12.8S111.7,99.2,104.7,99.2z M132,32.2
	l-34.7,7.5C96.1,39.9,95,39,95,37.8V20.5C95,5.2,108.9,5,108.9,5H132V32.2z M174,93h-39.3l12.7-3H174V93z"/>
    </symbol>
    <symbol id="tiptruck" viewBox="0 0 184 87">
        <g>
            <circle fill="#333333" cx="32.8" cy="72.9" r="4.4"/>
            <circle fill="#333333" cx="73.6" cy="72.9" r="4.4"/>
            <path fill="#333333" d="M32.8,58.4c-8,0-14.5,6.5-14.5,14.5s6.5,14.5,14.5,14.5s14.5-6.5,14.5-14.5S40.7,58.4,32.8,58.4z
		 M32.8,80.8c-4.4,0-7.9-3.5-7.9-7.9s3.5-7.9,7.9-7.9s7.9,3.5,7.9,7.9S37.1,80.8,32.8,80.8z"/>
            <circle fill="#333333" cx="156.2" cy="72.9" r="4.4"/>
            <path fill="#333333" d="M73.6,58.4c-8,0-14.5,6.5-14.5,14.5s6.5,14.5,14.5,14.5c8,0,14.5-6.5,14.5-14.5S81.6,58.4,73.6,58.4z
		 M73.6,80.8c-4.4,0-7.9-3.5-7.9-7.9s3.5-7.9,7.9-7.9c4.4,0,7.9,3.5,7.9,7.9S78,80.8,73.6,80.8z"/>
            <path fill="#333333" d="M156.2,58.4c-8,0-14.5,6.5-14.5,14.5s6.5,14.5,14.5,14.5c8,0,14.5-6.5,14.5-14.5S164.2,58.4,156.2,58.4z
		 M156.2,80.8c-4.4,0-7.9-3.5-7.9-7.9s3.5-7.9,7.9-7.9c4.4,0,7.9,3.5,7.9,7.9S160.5,80.8,156.2,80.8z"/>
            <path fill="#333333" d="M15.3,55.3l110.4-9.8c3.8-0.3,6.7-3.8,6.4-7.6l-2.5-27.6c-0.3-3.8-3.8-6.7-7.6-6.4L6.4,14.2
		C2.5,14.6-0.3,18,0,21.8c0,0,6.4,22.6,7.6,27.1C8.9,53.5,11.4,55.6,15.3,55.3z"/>
            <path fill="#333333" d="M183.9,38.7c0-11-11.6-32.8-12.4-34.1c-0.8-1.3-3-4.6-5.7-4.6h-26c-3.2,0-5.6,2.9-5.6,6.2v41.7
		c0,3.2-2.9,6.1-6.1,6.1H41.2l-25.8,2.3c-0.2,0-0.5,0-0.7,0c-1.3,0-2.6-0.3-3.7-0.9c-1.1,1-1.7,2.4-1.7,4.1V67c0,3.2,2.3,6,5.5,6
		h1.9c0-9,7.2-16.1,16.1-16.1c8.9,0,16.1,7.1,16.1,16.1h8.6c0-9,7.2-16.1,16.1-16.1c8.9,0,16.1,7.1,16.1,16.1h50.3
		c0-9,7.2-16.1,16.1-16.1c8.9,0,16.1,7.1,16.1,16.1h5.8c3.2,0,6.1-2.7,6.1-6V54.7C184.2,54.2,183.9,49.7,183.9,38.7z M152.7,33
		c-1.4,0-2.5-1.1-2.5-2.5V5.5c0-1.4,1.1-2.5,2.5-2.5h11.6c2.1,0,3.9,2.3,4.5,3.4c0.6,1,9.7,18.6,10.1,26.6H152.7z"/>
        </g>
    </symbol>
    <symbol id="tractor" viewBox="0 0 118.7 84.5">
        <g>
            <path fill="#333333" d="M100.5,44.4c2.4,0,4.8,0.4,7,1.1c-0.5-5.8-2.4-12.8-7.1-14.1L78,26.8V7.9c0-1.2-0.8-2.2-2-2.2
		c-1.2,0-2,1-2,2.2v18l-8-1.7L61.2,5.5c1-0.4,1.7-1.5,1.7-2.7c0-1.5-1.2-2.8-2.7-2.8H17c-1.5,0-2.7,1.5-2.7,3s1.2,3,2.7,3h0.8
		l-5.1,20c-0.6,0.3-1.3,0.6-1.9,0.9c-2.4,1.1-4,3.4-4.2,6.1l-0.3,3.8c5.4-4.1,11.9-6.5,19.1-6.4C43,30.7,56.1,47,53.8,64.5
		c-0.1,0.8-0.2,1.5-0.4,2.5H56h1.6h21.1c0,0,0-0.4,0-0.6C78.7,54.3,88.4,44.4,100.5,44.4z M37,26.4c0,1-0.9,1.7-1.9,1.4
		c-3.4-1-6.7-1.6-10.2-1.6c-2.2,0-4.4,0.2-6.5,0.6c-0.9,0.2-1.7-0.6-1.5-1.5l4.3-17.2C21.5,6.9,22.6,6,23.9,6h10.3
		C35.7,6,37,7.2,37,8.8V26.4z M54.7,45L54.7,45c-2.4-4.5-6.1-8.8-10.4-12.1c-2.8-2.2-4.4-5.6-4.4-9.1v-15C40,7.2,41.2,6,42.8,6h12.4
		c1.3,0,2.4,0.9,2.7,2.1l3.8,16.2c0.9,3.9,1.4,7.8,1.4,11.7v0.7C63,41.3,59.3,45,54.7,45z"/>
            <path fill="#333333" d="M24.9,34.7C11.2,34.7,0,45.8,0,59.6s11.2,24.9,24.9,24.9s24.9-11.2,24.9-24.9S38.7,34.7,24.9,34.7z
		 M24.9,75.8c-9,0-16.3-7.3-16.3-16.3S16,43.3,24.9,43.3c9,0,16.3,7.3,16.3,16.3S33.9,75.8,24.9,75.8z"/>
            <path fill="#333333" d="M100.5,48.1c-10.1,0-18.2,8.1-18.2,18.2s8.1,18.2,18.2,18.2s18.2-8.1,18.2-18.2S110.6,48.1,100.5,48.1z
		 M100.5,75.8c-5.3,0-9.5-4.3-9.5-9.5s4.3-9.5,9.5-9.5s9.5,4.3,9.5,9.5S105.8,75.8,100.5,75.8z"/>
            <circle fill="#333333" cx="24.9" cy="59.6" r="9.8"/>
        </g>
    </symbol>
    <symbol id="truck" viewBox="0 0 158 96.3">
        <g>
            <circle fill="#333333" cx="23.6" cy="81.9" r="4.4"/>
            <circle fill="#333333" cx="64.4" cy="81.9" r="4.4"/>
            <path fill="#333333" d="M23.6,67.4c-8,0-14.5,6.5-14.5,14.5s6.5,14.5,14.5,14.5S38,89.9,38,81.9S31.6,67.4,23.6,67.4z M23.6,89.8
		c-4.4,0-7.9-3.5-7.9-7.9s3.5-7.9,7.9-7.9s7.9,3.5,7.9,7.9S27.9,89.8,23.6,89.8z"/>
            <circle fill="#333333" cx="130" cy="81.9" r="4.4"/>
            <path fill="#333333" d="M64.4,67.4c-8,0-14.5,6.5-14.5,14.5s6.5,14.5,14.5,14.5c8,0,14.5-6.5,14.5-14.5S72.4,67.4,64.4,67.4z
		 M64.4,89.8c-4.4,0-7.9-3.5-7.9-7.9s3.5-7.9,7.9-7.9c4.4,0,7.9,3.5,7.9,7.9S68.8,89.8,64.4,89.8z"/>
            <path fill="#333333" d="M130,67.4c-8,0-14.5,6.5-14.5,14.5S122,96.3,130,96.3c8,0,14.5-6.5,14.5-14.5S138,67.4,130,67.4z M130,89.8
		c-4.4,0-7.9-3.5-7.9-7.9s3.5-7.9,7.9-7.9c4.4,0,7.9,3.5,7.9,7.9S134.3,89.8,130,89.8z"/>
        </g>
        <path fill="#333333" d="M157.7,47.7c0-11-11.6-32.8-12.4-34.1c-0.8-1.3-3-4.6-5.7-4.6H100V2.6c0-1.3-0.8-2.6-2.1-2.6h-3.2
	C93.4,0,92,1.4,92,2.6v46.3c0,4.2,3.8,7.7,8,7.8v0.2c0,3.4-2.6,6.1-6,6.1H50v-1.2c0-2.9-2.3-4.8-5.2-4.8H16.5c-2.9,0-5.5,2-5.5,4.8
	V63H3.3C1.5,63,0,64.5,0,66.3v2.2V76c0,3.3,2.7,6,6,6h1.5c0-9,7.2-16.1,16.1-16.1c8.9,0,16.1,7.1,16.1,16.1h8.6
	c0-9,7.2-16.1,16.1-16.1c8.9,0,16.1,7.1,16.1,16.1h33.3c0-9,7.2-16.1,16.1-16.1c8.9,0,16.1,7.1,16.1,16.1h5.8c3.3,0,6.1-2.7,6.1-6.1
	V63.7C158,63.2,157.7,58.7,157.7,47.7z M111.5,27h-8.8c-0.5,0-1-0.5-1-1s0.5-1,1-1h8.8c0.5,0,1,0.5,1,1S112.1,27,111.5,27z
	 M111.5,23h-8.8c-0.5,0-1-0.5-1-1s0.5-1,1-1h8.8c0.5,0,1,0.5,1,1S112.1,23,111.5,23z M111.5,19h-8.8c-0.5,0-1-0.5-1-1s0.5-1,1-1h8.8
	c0.5,0,1,0.5,1,1S112.1,19,111.5,19z M126.5,42c-1.4,0-2.5-1.1-2.5-2.5V14.5c0-1.4,1.1-2.5,2.5-2.5h11.6c2.1,0,3.9,2.3,4.5,3.4
	c0.6,1,9.7,18.6,10.1,26.6H126.5z"/>
    </symbol>
    <symbol id="washer" viewBox="0 0 182.8 106.8">
        <path fill="#333333" d="M162.1,70.7c5.3-0.7,10.2,1.1,13.8,4.3c1,0.9,2.7,0.8,3.5-0.4l2.9-3.7c1.2-1.6,0.1-3.9-1.9-3.9h-24.1
	c-2.9,0-5.2-2.3-5.2-5.2l0-22.6c0-0.1,0.1-0.5,0.1-0.6c-0.2-1-1.2-5.7-5.9-5.7c-5.3,0-5.2-3.6-5.2-3.6s0-15.5,0-20
	c0-2.7,1.8-3.6,3.2-3.9c1-0.2,1.8-1.1,1.8-2.2V2.5c0-1.4-1.1-2.5-2.5-2.5H93.7C78.4,0,79,11.2,79,11.2v20.7c0,0.8-0.4,1.6-1.1,2
	l-13.7,7.7c-0.7,0.4-1.2,1.2-1.2,2v7.4c0,1.2-0.9,2.1-2.1,2.1h-3.5c-0.2,0-0.4,0.1-0.5,0.1L1.8,66.7C0.8,67,0,67.9,0,68.9v21.2
	c0,1,0.8,1.9,1.8,2.2l20.6,5.4c0,5.1,4.2,9.1,9.3,9.1c3.5,0,6.5-1.8,8.1-4.8h10.8c1.6,3,4.6,4.8,8.1,4.8s6.5-1.8,8.1-4.8h26
	c3.3,3,7.4,4.1,11.9,4.1c7.4,0,13.9-4,17.2-10.1l0.5-0.1l0.7-0.2l6,8.3l17.9,0h9.5c-6.4-3.2-10.6-10.1-9.7-17.8
	c0.1-0.9,0.3-1.7,0.5-2.5l1.8,0.9c-0.3,1.2-0.4,2.4-0.4,3.6c0,8.6,7,15.6,15.6,15.6s15.6-7,15.6-15.6s-7-15.6-15.6-15.6
	c-5.1,0-9.6,2.5-12.5,6.2l-1.8-0.9C152.8,74,157.1,71.3,162.1,70.7z M31.7,103.4c-3.2,0-5.8-2.6-5.8-5.8c0-3.2,2.6-5.8,5.8-5.8
	s5.8,2.6,5.8,5.8C37.4,100.8,34.8,103.4,31.7,103.4z M58.7,103.4c-3.2,0-5.8-2.6-5.8-5.8c0-3.2,2.6-5.8,5.8-5.8s5.8,2.6,5.8,5.8
	C64.4,100.8,61.8,103.4,58.7,103.4z M85.2,60h-17c-0.6,0-1-0.4-1-1s0.4-1,1-1h17c0.6,0,1,0.4,1,1S85.7,60,85.2,60z M85.2,54h-17
	c-0.6,0-1-0.4-1-1s0.4-1,1-1h17c0.6,0,1,0.4,1,1S85.7,54,85.2,54z M85.2,48h-17c-0.6,0-1-0.4-1-1s0.4-1,1-1h17c0.6,0,1,0.4,1,1
	S85.7,48,85.2,48z M104.7,99.2c-7,0-12.8-5.7-12.8-12.8s5.7-12.8,12.8-12.8s12.8,5.7,12.8,12.8S111.7,99.2,104.7,99.2z M132,32.2
	l-34.7,7.5C96.1,39.9,95,39,95,37.8V20.5C95,5.2,108.9,5,108.9,5H132V32.2z M164.3,75.6c7,0,12.6,5.7,12.6,12.6s-5.7,12.6-12.6,12.6
	s-12.6-5.7-12.6-12.6c0-0.8,0.1-1.5,0.2-2.3l4.4,2.1c0,0.1,0,0.1,0,0.2c0,4.4,3.6,8,8,8s8-3.6,8-8s-3.6-8-8-8c-2.1,0-4,0.8-5.4,2.1
	l-4.3-2.1C156.9,77.4,160.4,75.6,164.3,75.6z"/>
    </symbol>
    <symbol id="alert" viewBox="0 0 439 439">
        <path d="M409.133,109.203c-19.608-33.592-46.205-60.189-79.798-79.796C295.736,9.801,259.058,0,219.273,0
		c-39.781,0-76.466,9.801-110.063,29.407c-33.595,19.604-60.192,46.201-79.8,79.796C9.801,142.8,0,179.489,0,219.267
		s9.804,76.463,29.407,110.062c19.607,33.585,46.204,60.189,79.799,79.798c33.597,19.605,70.283,29.407,110.063,29.407
		s76.47-9.802,110.065-29.407c33.593-19.602,60.189-46.206,79.795-79.798c19.603-33.599,29.403-70.287,29.403-110.062
		C438.533,179.489,428.732,142.795,409.133,109.203z M255.82,356.021c0,2.669-0.862,4.9-2.573,6.707s-3.806,2.711-6.283,2.711
		h-54.818c-2.472,0-4.663-0.952-6.565-2.854c-1.904-1.903-2.854-4.093-2.854-6.563V301.78c0-2.478,0.95-4.668,2.854-6.571
		c1.903-1.902,4.093-2.851,6.565-2.851h54.818c2.478,0,4.579,0.907,6.283,2.707c1.711,1.817,2.573,4.045,2.573,6.715V356.021z
		 M255.246,257.812c-0.192,1.902-1.188,3.568-2.991,4.996c-1.813,1.424-4.045,2.135-6.708,2.135h-52.822
		c-2.666,0-4.95-0.711-6.853-2.135c-1.904-1.428-2.857-3.094-2.857-4.996L178.162,80.51c0-2.288,0.95-3.997,2.852-5.14
		c1.906-1.521,4.19-2.284,6.854-2.284h62.819c2.666,0,4.948,0.76,6.851,2.284c1.903,1.143,2.848,2.856,2.848,5.14L255.246,257.812z"
                />
    </symbol>

</svg>