<?xml version="1.0" encoding="utf-8"?>
<!-- Generator: Adobe Illustrator 18.0.0, SVG Export Plug-In . SVG Version: 6.00 Build 0)  -->
<!DOCTYPE svg PUBLIC "-//W3C//DTD SVG 1.1//EN" "http://www.w3.org/Graphics/SVG/1.1/DTD/svg11.dtd">
<svg version="1.1" id="Layer_1" xmlns="http://www.w3.org/2000/svg" xmlns:xlink="http://www.w3.org/1999/xlink" x="0px" y="0px"
	 viewBox="0 0 182.8 106.8" enable-background="new 0 0 182.8 106.8" xml:space="preserve">
<path fill="#333333" d="M162.1,70.7c5.3-0.7,10.2,1.1,13.8,4.3c1,0.9,2.7,0.8,3.5-0.4l2.9-3.7c1.2-1.6,0.1-3.9-1.9-3.9h-24.1
	c-2.9,0-5.2-2.3-5.2-5.2l0-22.6c0-0.1,0.1-0.5,0.1-0.6c-0.2-1-1.2-5.7-5.9-5.7c-5.3,0-5.2-3.6-5.2-3.6s0-15.5,0-20
	c0-2.7,1.8-3.6,3.2-3.9c1-0.2,1.8-1.1,1.8-2.2V2.5c0-1.4-1.1-2.5-2.5-2.5H93.7C78.4,0,79,11.2,79,11.2v20.7c0,0.8-0.4,1.6-1.1,2
	l-13.7,7.7c-0.7,0.4-1.2,1.2-1.2,2v7.4c0,1.2-0.9,2.1-2.1,2.1h-3.5c-0.2,0-0.4,0.1-0.5,0.1L1.8,66.7C0.8,67,0,67.9,0,68.9v21.2
	c0,1,0.8,1.9,1.8,2.2l20.6,5.4c0,5.1,4.2,9.1,9.3,9.1c3.5,0,6.5-1.8,8.1-4.8h10.8c1.6,3,4.6,4.8,8.1,4.8s6.5-1.8,8.1-4.8h26
	c3.3,3,7.4,4.1,11.9,4.1c7.4,0,13.9-4,17.2-10.1l0.5-0.1l0.7-0.2l6,8.3l17.9,0h9.5c-6.4-3.2-10.6-10.1-9.7-17.8
	c0.1-0.9,0.3-1.7,0.5-2.5l1.8,0.9c-0.3,1.2-0.4,2.4-0.4,3.6c0,8.6,7,15.6,15.6,15.6s15.6-7,15.6-15.6s-7-15.6-15.6-15.6
	c-5.1,0-9.6,2.5-12.5,6.2l-1.8-0.9C152.8,74,157.1,71.3,162.1,70.7z M31.7,103.4c-3.2,0-5.8-2.6-5.8-5.8c0-3.2,2.6-5.8,5.8-5.8
	s5.8,2.6,5.8,5.8C37.4,100.8,34.8,103.4,31.7,103.4z M58.7,103.4c-3.2,0-5.8-2.6-5.8-5.8c0-3.2,2.6-5.8,5.8-5.8s5.8,2.6,5.8,5.8
	C64.4,100.8,61.8,103.4,58.7,103.4z M85.2,60h-17c-0.6,0-1-0.4-1-1s0.4-1,1-1h17c0.6,0,1,0.4,1,1S85.7,60,85.2,60z M85.2,54h-17
	c-0.6,0-1-0.4-1-1s0.4-1,1-1h17c0.6,0,1,0.4,1,1S85.7,54,85.2,54z M85.2,48h-17c-0.6,0-1-0.4-1-1s0.4-1,1-1h17c0.6,0,1,0.4,1,1
	S85.7,48,85.2,48z M104.7,99.2c-7,0-12.8-5.7-12.8-12.8s5.7-12.8,12.8-12.8s12.8,5.7,12.8,12.8S111.7,99.2,104.7,99.2z M132,32.2
	l-34.7,7.5C96.1,39.9,95,39,95,37.8V20.5C95,5.2,108.9,5,108.9,5H132V32.2z M164.3,75.6c7,0,12.6,5.7,12.6,12.6s-5.7,12.6-12.6,12.6
	s-12.6-5.7-12.6-12.6c0-0.8,0.1-1.5,0.2-2.3l4.4,2.1c0,0.1,0,0.1,0,0.2c0,4.4,3.6,8,8,8s8-3.6,8-8s-3.6-8-8-8c-2.1,0-4,0.8-5.4,2.1
	l-4.3-2.1C156.9,77.4,160.4,75.6,164.3,75.6z"/>
</svg>
